# Blender v2.79 (sub 0) OBJ File: 'SAT DYN NORMAL MAP MACHINE.blend'
# www.blender.org
v -0.602891 0.629333 0.558740
v -0.602891 0.652413 0.735244
v -0.602891 0.660107 0.911748
v -0.602891 0.660107 1.088252
v -0.602891 0.652413 1.264756
v -0.602891 0.629333 1.441260
v -0.430636 0.662756 0.558740
v -0.430636 0.685836 0.735244
v -0.430636 0.693530 0.911748
v -0.430636 0.693530 1.088252
v -0.430636 0.685836 1.264756
v -0.430636 0.662756 1.441260
v -0.258381 0.682810 0.558740
v -0.258381 0.705890 0.735244
v -0.258381 0.713583 0.911748
v -0.258381 0.713583 1.088252
v -0.258381 0.705890 1.264756
v -0.258381 0.682810 1.441260
v -0.086126 0.689495 0.558740
v -0.086127 0.712575 0.735244
v -0.086127 0.720268 0.911748
v -0.086127 0.720268 1.088252
v -0.086127 0.712575 1.264756
v -0.086127 0.689495 1.441260
v 0.086128 0.689495 0.558740
v 0.086128 0.712575 0.735244
v 0.086128 0.720268 0.911748
v 0.086128 0.720268 1.088252
v 0.086128 0.712575 1.264756
v 0.086128 0.689495 1.441260
v 0.258383 0.682810 0.558740
v 0.258383 0.705890 0.735244
v 0.258383 0.713583 0.911748
v 0.258383 0.713583 1.088252
v 0.258383 0.705890 1.264756
v 0.258383 0.682810 1.441260
v 0.430638 0.662756 0.558740
v 0.430638 0.685836 0.735244
v 0.430638 0.693530 0.911748
v 0.430638 0.693530 1.088252
v 0.430638 0.685836 1.264756
v 0.430638 0.662756 1.441260
v 0.602893 0.629333 0.558740
v 0.602893 0.652413 0.735244
v 0.602893 0.660107 0.911748
v 0.602893 0.660107 1.088252
v 0.602893 0.652413 1.264756
v 0.602893 0.629333 1.441260
v -0.500000 -0.400000 -0.000000
v -0.500000 0.400000 -0.000000
v 0.500000 -0.400000 -0.000000
v 0.500000 0.400000 -0.000000
v -0.765688 0.652684 0.387450
v 0.765688 0.652684 0.387450
v -0.765688 0.652684 1.612551
v 0.765688 0.652684 1.612551
v -0.990000 0.600000 1.792000
v -0.990000 0.600000 0.208000
v 0.990000 0.600000 0.208000
v 0.990000 0.600000 1.792000
v -0.990000 0.300000 1.792000
v -0.990000 0.300000 0.208000
v 0.990000 0.300000 0.208000
v 0.990000 0.300000 1.792000
v -0.712800 -0.700000 1.475200
v -0.712800 -0.700000 0.524800
v 0.712800 -0.700000 0.524800
v 0.712800 -0.700000 1.475200
v -0.641520 -0.800000 1.427680
v -0.641520 -0.800000 0.572320
v 0.641520 -0.800000 0.572320
v 0.641520 -0.800000 1.427680
v -0.900000 0.700000 1.720000
v -0.900000 0.700000 0.280000
v 0.900000 0.700000 0.280000
v 0.900000 0.700000 1.720000
v -0.500000 -0.400000 0.429760
v -0.500000 0.300000 0.208000
v -0.500000 0.400000 0.208000
v 0.500000 0.400000 0.208000
v 0.500000 -0.400000 0.429760
v 0.500000 0.300000 0.208000
v 0.086128 0.652164 1.612551
v -0.086127 0.652164 1.612551
v -0.258381 0.645479 1.612551
v -0.430636 0.625425 1.612551
v -0.602891 0.592002 1.612551
v -0.765688 0.562838 1.612551
v -0.765688 0.585110 1.441260
v -0.765688 0.608191 1.264756
v -0.765688 0.615884 1.088252
v -0.765688 0.615884 0.911748
v -0.765688 0.608191 0.735244
v -0.765688 0.585110 0.558740
v -0.258381 0.645479 0.387449
v -0.086126 0.652164 0.387449
v -0.430636 0.625425 0.387449
v -0.602891 0.592003 0.387449
v -0.765688 0.562838 0.387450
v 0.258383 0.645479 1.612551
v 0.258383 0.645479 0.387449
v 0.086128 0.652164 0.387449
v 0.430638 0.625425 1.612551
v 0.430638 0.625425 0.387449
v 0.602893 0.592002 1.612551
v 0.602893 0.592003 0.387449
v 0.765688 0.585111 1.441260
v 0.765688 0.608191 1.264756
v 0.765688 0.615884 0.911748
v 0.765688 0.615884 1.088252
v 0.765688 0.608191 0.735244
v 0.765688 0.562839 1.612551
v 0.765688 0.585111 0.558740
v 0.765688 0.562839 0.387450
v -0.500000 0.400000 -0.000000
v -0.500000 0.400000 -0.000000
v -0.500000 -0.400000 -0.000000
v -0.500000 -0.400000 -0.000000
v -0.500000 0.400000 0.208000
v -0.500000 0.400000 0.208000
v 0.500000 0.400000 -0.000000
v 0.500000 0.400000 -0.000000
v 0.500000 0.400000 0.208000
v 0.500000 0.400000 0.208000
v 0.500000 -0.400000 -0.000000
v 0.500000 -0.400000 -0.000000
v 0.500000 -0.400000 0.429760
v 0.500000 -0.400000 0.429760
v -0.900000 0.700000 1.720000
v -0.900000 0.700000 1.720000
v -0.900000 0.700000 1.720000
v -0.900000 0.700000 0.280000
v -0.900000 0.700000 0.280000
v -0.900000 0.700000 0.280000
v 0.900000 0.700000 0.280000
v 0.900000 0.700000 0.280000
v 0.900000 0.700000 0.280000
v 0.900000 0.700000 1.720000
v 0.900000 0.700000 1.720000
v 0.900000 0.700000 1.720000
v -0.990000 0.600000 1.792000
v -0.990000 0.600000 1.792000
v -0.990000 0.600000 1.792000
v -0.990000 0.600000 0.208000
v -0.990000 0.600000 0.208000
v -0.990000 0.600000 0.208000
v 0.990000 0.600000 0.208000
v 0.990000 0.600000 0.208000
v 0.990000 0.600000 0.208000
v 0.990000 0.600000 1.792000
v 0.990000 0.600000 1.792000
v 0.990000 0.600000 1.792000
v -0.990000 0.300000 1.792000
v -0.990000 0.300000 1.792000
v -0.990000 0.300000 1.792000
v -0.990000 0.300000 0.208000
v -0.990000 0.300000 0.208000
v -0.990000 0.300000 0.208000
v 0.500000 0.300000 0.208000
v 0.500000 0.300000 0.208000
v 0.990000 0.300000 0.208000
v 0.990000 0.300000 0.208000
v 0.990000 0.300000 0.208000
v 0.990000 0.300000 1.792000
v 0.990000 0.300000 1.792000
v 0.990000 0.300000 1.792000
v -0.712800 -0.700000 1.475200
v -0.712800 -0.700000 1.475200
v -0.712800 -0.700000 1.475200
v -0.712800 -0.700000 0.524800
v -0.712800 -0.700000 0.524800
v -0.712800 -0.700000 0.524800
v 0.712800 -0.700000 0.524800
v 0.712800 -0.700000 0.524800
v 0.712800 -0.700000 0.524800
v 0.712800 -0.700000 1.475200
v 0.712800 -0.700000 1.475200
v 0.712800 -0.700000 1.475200
v -0.641520 -0.800000 1.427680
v -0.641520 -0.800000 1.427680
v -0.641520 -0.800000 0.572320
v -0.641520 -0.800000 0.572320
v 0.641520 -0.800000 0.572320
v 0.641520 -0.800000 0.572320
v 0.641520 -0.800000 1.427680
v 0.641520 -0.800000 1.427680
v -0.765688 0.652684 1.612551
v -0.765688 0.652684 1.612551
v -0.765688 0.652684 1.612551
v -0.765688 0.652684 0.387450
v -0.765688 0.652684 0.387450
v -0.765688 0.652684 0.387450
v 0.765688 0.652684 0.387450
v 0.765688 0.652684 0.387450
v 0.765688 0.652684 0.387450
v 0.765688 0.652684 1.612551
v 0.765688 0.652684 1.612551
v 0.765688 0.652684 1.612551
v 0.765688 0.562839 1.612551
v 0.765688 0.562839 1.612551
v -0.765688 0.562838 0.387450
v -0.765688 0.562838 0.387450
v -0.500000 0.300000 0.208000
v -0.500000 0.300000 0.208000
v -0.500000 -0.400000 0.429760
v -0.500000 -0.400000 0.429760
v 0.086128 0.652164 1.612551
v -0.086127 0.652164 1.612551
v -0.258381 0.645479 1.612551
v -0.602891 0.592002 1.612551
v -0.430636 0.625425 1.612551
v -0.765688 0.562838 1.612551
v -0.765688 0.562838 1.612551
v -0.765688 0.585110 1.441260
v -0.765688 0.608191 1.264756
v -0.765688 0.615884 1.088252
v -0.765688 0.615884 0.911748
v -0.765688 0.608191 0.735244
v -0.765688 0.585110 0.558740
v -0.086126 0.652164 0.387449
v -0.258381 0.645479 0.387449
v -0.430636 0.625425 0.387449
v -0.602891 0.592003 0.387449
v 0.258383 0.645479 1.612551
v 0.086128 0.652164 0.387449
v 0.258383 0.645479 0.387449
v 0.430638 0.625425 1.612551
v 0.430638 0.625425 0.387449
v 0.602893 0.592003 0.387449
v 0.602893 0.592002 1.612551
v 0.765688 0.585111 1.441260
v 0.765688 0.608191 1.264756
v 0.765688 0.615884 1.088252
v 0.765688 0.615884 0.911748
v 0.765688 0.608191 0.735244
v 0.765688 0.585111 0.558740
v 0.765688 0.562839 0.387450
v 0.765688 0.562839 0.387450
vt 0.092394 0.985061
vt 0.017696 0.888648
vt 0.092394 0.888648
vt 0.645667 0.888648
vt 0.566628 0.985061
vt 0.566628 0.888648
vt 0.487589 0.985061
vt 0.487589 0.888648
vt 0.408550 0.985061
vt 0.408550 0.888648
vt 0.329511 0.888648
vt 0.329511 0.985061
vt 0.250472 0.888648
vt 0.250472 0.985061
vt 0.171433 0.888648
vt 0.171434 0.985061
vt 0.171433 0.391908
vt 0.092395 0.491256
vt 0.092394 0.391909
vt 0.171433 0.491256
vt 0.092394 0.590604
vt 0.171433 0.689952
vt 0.171433 0.590604
vt 0.171433 0.789300
vt 0.092394 0.689952
vt 0.092394 0.789300
vt 0.250472 0.391908
vt 0.250472 0.491256
vt 0.250472 0.689952
vt 0.250472 0.590604
vt 0.250472 0.789300
vt 0.329511 0.391908
vt 0.329511 0.491256
vt 0.329511 0.689952
vt 0.329511 0.590604
vt 0.329511 0.789300
vt 0.408550 0.491256
vt 0.408550 0.391908
vt 0.408550 0.590604
vt 0.408550 0.689952
vt 0.408550 0.789300
vt 0.487589 0.491256
vt 0.487589 0.391908
vt 0.487589 0.590604
vt 0.487589 0.689952
vt 0.487589 0.789300
vt 0.566628 0.491256
vt 0.566628 0.391908
vt 0.566628 0.590604
vt 0.566628 0.689952
vt 0.566628 0.789300
vt 0.645667 0.491256
vt 0.645667 0.391908
vt 0.645667 0.590604
vt 0.645667 0.689952
vt 0.645667 0.789300
vt 0.017696 0.491256
vt 0.017696 0.391909
vt 0.017696 0.590604
vt 0.017696 0.689952
vt 0.017696 0.789300
vt 0.838857 0.565839
vt 0.838857 0.577657
vt 0.808634 0.577657
vt 0.932772 0.761559
vt 0.828999 0.735081
vt 0.932772 0.735081
vt 0.905625 0.565839
vt 0.873403 0.483112
vt 0.935848 0.483112
vt 0.932772 0.733045
vt 0.828999 0.678337
vt 0.932772 0.678337
vt 0.932772 0.596168
vt 0.828999 0.676300
vt 0.828999 0.596168
vt 0.997963 0.002075
vt 0.990485 0.183887
vt 0.990485 0.138096
vt 0.620085 0.013935
vt 0.659713 0.281048
vt 0.620086 0.281048
vt 0.607678 0.026077
vt 0.620086 0.281048
vt 0.607678 0.268906
vt 0.605030 0.268906
vt 0.592622 0.013935
vt 0.605030 0.026077
vt 0.889906 0.023235
vt 0.908237 0.415499
vt 0.889906 0.396819
vt 0.840146 0.023235
vt 0.858477 0.415499
vt 0.840146 0.396819
vt 0.159508 0.270583
vt 0.018697 0.040866
vt 0.159508 0.003470
vt 0.592622 0.281048
vt 0.552995 0.013935
vt 0.592622 0.013935
vt 0.198198 0.270583
vt 0.159508 0.003470
vt 0.198198 0.003470
vt 0.200845 0.270583
vt 0.200845 0.003470
vt 0.226889 0.204480
vt 0.379588 0.040866
vt 0.394029 0.223571
vt 0.379588 0.233187
vt 0.337684 0.204480
vt 0.337684 0.069574
vt 0.379588 0.040866
vt 0.659712 0.013935
vt 0.794270 0.227625
vt 0.659713 0.281048
vt 0.552995 0.281048
vt 0.418437 0.067358
vt 0.552995 0.013935
vt 0.793785 0.772799
vt 0.968002 0.985831
vt 0.793785 0.985831
vt 0.794270 0.227625
vt 0.808114 0.075371
vt 0.808114 0.219612
vt 0.418437 0.227625
vt 0.404594 0.075371
vt 0.418437 0.067358
vt 0.018697 0.233187
vt 0.004023 0.050482
vt 0.018697 0.040866
vt 0.912311 0.032432
vt 0.939667 0.378140
vt 0.912311 0.350264
vt 0.812790 0.051111
vt 0.840146 0.396819
vt 0.812790 0.368943
vt 0.945795 0.041840
vt 0.973151 0.387549
vt 0.945795 0.359673
vt 0.862550 0.051111
vt 0.889906 0.396819
vt 0.862550 0.368943
vt 0.966399 0.435772
vt 0.958921 0.617583
vt 0.958921 0.571792
vt 0.979705 0.641891
vt 0.979705 0.324059
vt 0.979810 0.500850
vt 0.997428 0.787082
vt 0.996102 0.751331
vt 0.997531 0.646042
vt 0.408550 0.295495
vt 0.250472 0.295495
vt 0.171433 0.295495
vt 0.720366 0.590604
vt 0.720366 0.491256
vt 0.092394 0.295495
vt 0.720366 0.689952
vt 0.566628 0.295495
vt 0.720366 0.789300
vt 0.329511 0.295495
vt 0.645667 0.295495
vt 0.720366 0.391908
vt 0.720366 0.888648
vt 0.645667 0.985061
vt 0.487589 0.295495
vt 0.017696 0.985061
vt 0.808634 0.483112
vt 0.871078 0.483112
vt 0.828999 0.761559
vt 0.935848 0.577657
vt 0.905625 0.577657
vt 0.828999 0.733045
vt 0.932772 0.676300
vt 0.997963 0.319908
vt 0.979705 0.319908
vt 0.984231 0.275469
vt 0.988922 0.229678
vt 0.984231 0.046514
vt 0.979705 0.002075
vt 0.988922 0.092305
vt 0.659712 0.013935
vt 0.620085 0.013935
vt 0.592622 0.281048
vt 0.908237 0.004556
vt 0.858477 0.004556
vt 0.018697 0.233187
vt 0.552995 0.281048
vt 0.159508 0.270583
vt 0.239910 0.003470
vt 0.226889 0.069574
vt 0.239910 0.069574
vt 0.239910 0.204480
vt 0.239910 0.270583
vt 0.394029 0.050482
vt 0.379588 0.233187
vt 0.239910 0.270583
vt 0.239910 0.204480
vt 0.239910 0.069574
vt 0.239910 0.003470
vt 0.794270 0.067358
vt 0.418437 0.227625
vt 0.968002 0.772799
vt 0.794270 0.067358
vt 0.404594 0.219612
vt 0.004023 0.223572
vt 0.939667 0.004556
vt 0.840146 0.023235
vt 0.973151 0.013964
vt 0.889906 0.023235
vt 0.966399 0.753604
vt 0.948141 0.753604
vt 0.952667 0.709165
vt 0.957357 0.663374
vt 0.952667 0.480210
vt 0.948141 0.435772
vt 0.957357 0.526001
vt 0.997704 0.324059
vt 0.991862 0.357846
vt 0.985166 0.393597
vt 0.991862 0.608103
vt 0.997704 0.641891
vt 0.985166 0.572352
vt 0.981149 0.429348
vt 0.979810 0.465099
vt 0.981149 0.536601
vt 0.997532 0.963874
vt 0.979705 0.963874
vt 0.985492 0.930086
vt 0.992123 0.894335
vt 0.985492 0.679829
vt 0.979705 0.646042
vt 0.992123 0.715580
vt 0.996102 0.858584
vt 0.997428 0.822833
vt 0.017696 0.295495
vt 0.720366 0.295495
vt 0.720367 0.985061
s 1
f 230/1 231/2 48/3
f 6/4 211/5 12/6
f 12/6 209/7 18/8
f 18/8 208/9 24/10
f 208/9 30/11 24/10
f 207/12 36/13 30/11
f 224/14 42/15 36/13
f 227/16 48/3 42/15
f 37/17 44/18 43/19
f 38/20 45/21 44/18
f 40/22 45/21 39/23
f 41/24 46/25 40/22
f 42/15 47/26 41/24
f 31/27 38/20 37/17
f 32/28 39/23 38/20
f 34/29 39/23 33/30
f 35/31 40/22 34/29
f 36/13 41/24 35/31
f 25/32 32/28 31/27
f 26/33 33/30 32/28
f 28/34 33/30 27/35
f 29/36 34/29 28/34
f 30/11 35/31 29/36
f 20/37 25/32 19/38
f 21/39 26/33 20/37
f 22/40 27/35 21/39
f 23/41 28/34 22/40
f 24/10 29/36 23/41
f 14/42 19/38 13/43
f 15/44 20/37 14/42
f 16/45 21/39 15/44
f 16/45 23/41 22/40
f 17/46 24/10 23/41
f 8/47 13/43 7/48
f 9/49 14/42 8/47
f 10/50 15/44 9/49
f 10/50 17/46 16/45
f 11/51 18/8 17/46
f 2/52 7/48 1/53
f 3/54 8/47 2/52
f 4/55 9/49 3/54
f 4/55 11/51 10/50
f 5/56 12/6 11/51
f 43/19 235/57 236/58
f 44/18 234/59 235/57
f 46/25 234/59 45/21
f 47/26 233/60 46/25
f 48/3 232/61 47/26
f 203/62 119/63 115/64
f 120/65 121/66 116/67
f 160/68 127/69 125/70
f 128/71 118/72 126/73
f 52/74 49/75 50/76
f 196/77 109/78 110/79
f 150/80 162/81 148/82
f 138/83 149/84 136/85
f 132/86 141/87 129/88
f 130/89 151/90 139/91
f 135/92 145/93 133/94
f 154/95 177/96 165/97
f 146/98 153/99 143/100
f 57/101 166/102 60/103
f 58/104 59/105 79/106
f 173/107 182/108 171/109
f 77/110 81/111 175/112
f 64/113 174/114 63/115
f 62/116 167/117 61/118
f 184/119 179/120 181/121
f 67/122 186/123 71/124
f 66/125 180/126 169/127
f 65/128 72/129 68/130
f 190/131 131/132 187/133
f 193/134 74/135 191/136
f 198/137 75/138 195/139
f 188/140 76/141 197/142
f 192/143 216/144 217/145
f 55/146 56/147 84/148
f 102/149 101/150 54/151
f 220/152 13/43 19/38
f 226/153 37/17 228/154
f 92/155 4/55 3/54
f 92/155 2/52 93/156
f 236/58 229/157 43/19
f 91/158 5/56 4/55
f 222/159 1/53 7/48
f 90/160 6/4 5/56
f 225/161 31/27 226/153
f 228/154 43/19 229/157
f 223/162 94/163 1/53
f 89/164 210/165 6/4
f 220/152 25/32 225/161
f 93/156 1/53 94/163
f 221/166 7/48 13/43
f 230/1 200/167 231/2
f 6/4 210/165 211/5
f 12/6 211/5 209/7
f 18/8 209/7 208/9
f 208/9 207/12 30/11
f 207/12 224/14 36/13
f 224/14 227/16 42/15
f 227/16 230/1 48/3
f 37/17 38/20 44/18
f 38/20 39/23 45/21
f 40/22 46/25 45/21
f 41/24 47/26 46/25
f 42/15 48/3 47/26
f 31/27 32/28 38/20
f 32/28 33/30 39/23
f 34/29 40/22 39/23
f 35/31 41/24 40/22
f 36/13 42/15 41/24
f 25/32 26/33 32/28
f 26/33 27/35 33/30
f 28/34 34/29 33/30
f 29/36 35/31 34/29
f 30/11 36/13 35/31
f 20/37 26/33 25/32
f 21/39 27/35 26/33
f 22/40 28/34 27/35
f 23/41 29/36 28/34
f 24/10 30/11 29/36
f 14/42 20/37 19/38
f 15/44 21/39 20/37
f 16/45 22/40 21/39
f 16/45 17/46 23/41
f 17/46 18/8 24/10
f 8/47 14/42 13/43
f 9/49 15/44 14/42
f 10/50 16/45 15/44
f 10/50 11/51 17/46
f 11/51 12/6 18/8
f 2/52 8/47 7/48
f 3/54 9/49 8/47
f 4/55 10/50 9/49
f 4/55 5/56 11/51
f 5/56 6/4 12/6
f 43/19 44/18 235/57
f 44/18 45/21 234/59
f 46/25 233/60 234/59
f 47/26 232/61 233/60
f 48/3 231/2 232/61
f 115/64 117/168 203/62
f 117/168 205/169 203/62
f 120/65 123/170 121/66
f 125/70 122/171 160/68
f 122/171 124/172 160/68
f 128/71 206/173 118/72
f 52/74 51/174 49/75
f 194/175 238/176 113/177
f 194/175 113/177 111/178
f 107/179 199/180 196/77
f 108/181 107/179 196/77
f 196/77 194/175 109/78
f 194/175 111/178 109/78
f 110/79 108/181 196/77
f 150/80 164/182 162/81
f 138/83 152/183 149/84
f 132/86 144/184 141/87
f 130/89 142/185 151/90
f 135/92 147/186 145/93
f 154/95 168/187 177/96
f 146/98 156/188 153/99
f 57/101 155/189 166/102
f 59/105 161/190 80/191
f 161/190 159/192 80/191
f 204/193 158/194 79/106
f 158/194 58/104 79/106
f 59/105 80/191 79/106
f 173/107 183/195 182/108
f 172/196 157/197 77/110
f 157/197 78/198 77/110
f 82/199 163/200 81/111
f 163/200 175/112 81/111
f 172/196 77/110 175/112
f 64/113 176/201 174/114
f 62/116 170/202 167/117
f 184/119 185/203 179/120
f 67/122 178/204 186/123
f 66/125 70/205 180/126
f 65/128 69/206 72/129
f 190/131 134/207 131/132
f 193/134 137/208 74/135
f 198/137 140/209 75/138
f 188/140 73/210 76/141
f 189/211 213/212 214/213
f 189/211 214/213 215/214
f 219/215 201/216 192/143
f 218/217 219/215 192/143
f 192/143 189/211 216/144
f 189/211 215/214 216/144
f 217/145 218/217 192/143
f 56/147 112/218 105/219
f 56/147 105/219 103/220
f 87/221 212/222 55/146
f 86/223 87/221 55/146
f 56/147 103/220 100/224
f 56/147 100/224 83/225
f 85/226 86/223 55/146
f 56/147 83/225 84/148
f 84/148 85/226 55/146
f 53/227 202/228 98/229
f 53/227 98/229 97/230
f 106/231 237/232 54/151
f 104/233 106/231 54/151
f 53/227 97/230 95/234
f 53/227 95/234 96/235
f 101/150 104/233 54/151
f 53/227 96/235 54/151
f 96/235 102/149 54/151
f 220/152 221/166 13/43
f 226/153 31/27 37/17
f 92/155 91/158 4/55
f 92/155 3/54 2/52
f 236/58 114/236 229/157
f 91/158 90/160 5/56
f 222/159 223/162 1/53
f 90/160 89/164 6/4
f 225/161 25/32 31/27
f 228/154 37/17 43/19
f 223/162 99/237 94/163
f 89/164 88/238 210/165
f 220/152 19/38 25/32
f 93/156 2/52 1/53
f 221/166 222/159 7/48
